{
  "data": [
    {
      "address": "0xba2ae424d960c26247dd6c32edc70b295c744c43",
      "name": "Dogecoin",
      "symbol": "DOGE"
    },
    {
      "address": "0xba2ae424d960c26247dd6c32edc70b295c744c43",
      "name": "Cardano",
      "symbol": "ADA"
    },
    {
      "address": "0xba2ae424d960c26247dd6c32edc70b295c744c43",
      "name": "XRP",
      "symbol": "XRP"

    }
  ]
  }

